\relax 
\providecommand\hyper@newdestlabel[2]{}
\providecommand\HyperFirstAtBeginDocument{\AtBeginDocument}
\HyperFirstAtBeginDocument{\ifx\hyper@anchor\@undefined
\global\let\oldcontentsline\contentsline
\gdef\contentsline#1#2#3#4{\oldcontentsline{#1}{#2}{#3}}
\global\let\oldnewlabel\newlabel
\gdef\newlabel#1#2{\newlabelxx{#1}#2}
\gdef\newlabelxx#1#2#3#4#5#6{\oldnewlabel{#1}{{#2}{#3}}}
\AtEndDocument{\ifx\hyper@anchor\@undefined
\let\contentsline\oldcontentsline
\let\newlabel\oldnewlabel
\fi}
\fi}
\global\let\hyper@last\relax 
\gdef\HyperFirstAtBeginDocument#1{#1}
\providecommand\HyField@AuxAddToFields[1]{}
\providecommand\HyField@AuxAddToCoFields[2]{}
\@writefile{toc}{\contentsline {chapter}{\numberline {1}Choosing a Linux Distro and the Installation Process}{3}{chapter.1}}
\@writefile{lof}{\addvspace {10\p@ }}
\@writefile{lot}{\addvspace {10\p@ }}
\newlabel{chapter:Choosing a Linux Distro and the Installation Process}{{1}{3}{Choosing a Linux Distro and the Installation Process}{chapter.1}{}}
\@writefile{toc}{\contentsline {section}{\numberline {1.1}Introduction}{3}{section.1.1}}
\@writefile{toc}{\contentsline {section}{\numberline {1.2}Find Your Distrobution}{3}{section.1.2}}
\@writefile{toc}{\contentsline {subsection}{\numberline {1.2.1}Examples of Distrobutions}{4}{subsection.1.2.1}}
\@writefile{lof}{\contentsline {figure}{\numberline {1.1}{\ignorespaces Above depicts Ubuntu(Unity Desktop Environment)}}{4}{figure.1.1}}
\newlabel{fig:ubuntu}{{1.1}{4}{Above depicts Ubuntu(Unity Desktop Environment)}{figure.1.1}{}}
\@writefile{lof}{\contentsline {figure}{\numberline {1.2}{\ignorespaces Above depicts Linux Mint(Cinnamon Desktop Environment)}}{4}{figure.1.2}}
\newlabel{fig:mint}{{1.2}{4}{Above depicts Linux Mint(Cinnamon Desktop Environment)}{figure.1.2}{}}
\@writefile{toc}{\contentsline {section}{\numberline {1.3}The Installation Process}{5}{section.1.3}}
\@writefile{toc}{\contentsline {subsection}{\numberline {1.3.1}Installing Rufus}{5}{subsection.1.3.1}}
\@writefile{lof}{\contentsline {figure}{\numberline {1.3}{\ignorespaces Above depicts Rufus (A tool for creating a bootable drive from an iso file)}}{5}{figure.1.3}}
\newlabel{fig:rufus}{{1.3}{5}{Above depicts Rufus (A tool for creating a bootable drive from an iso file)}{figure.1.3}{}}
\@writefile{toc}{\contentsline {subsection}{\numberline {1.3.2}Installing Linux}{6}{subsection.1.3.2}}
\@writefile{lof}{\contentsline {figure}{\numberline {1.4}{\ignorespaces Above depicts the installation window for installing Ubuntu}}{6}{figure.1.4}}
\newlabel{fig:install}{{1.4}{6}{Above depicts the installation window for installing Ubuntu}{figure.1.4}{}}
