\contentsline {chapter}{\numberline {1}Choosing a Linux Distro and the Installation Process}{3}{chapter.1}
\contentsline {section}{\numberline {1.1}Introduction}{3}{section.1.1}
\contentsline {section}{\numberline {1.2}Find Your Distrobution}{3}{section.1.2}
\contentsline {subsection}{\numberline {1.2.1}Examples of Distrobutions}{4}{subsection.1.2.1}
\contentsline {section}{\numberline {1.3}The Installation Process}{5}{section.1.3}
\contentsline {subsection}{\numberline {1.3.1}Installing Rufus}{5}{subsection.1.3.1}
\contentsline {subsection}{\numberline {1.3.2}Installing Linux}{6}{subsection.1.3.2}
